id,name,city,vacation,cost,currency
11,Tour Operator №1,Kiev,Turkey,560,Euro
22,Tour Operator №2,Kharkiv,Crimea,520,Dollars
33,Tour Operator №3,Odessa,Turkey,480,Tenge
44,Tour Operator №4,Lviv,Egypt,440,Tugriki
55,Tour Operator №5,Krivyi Rih,Zambia,400,Hryvni
66,Tour Operator №6,Krivyi Rih,Turkey,360,Hryvni
77,Tour Operator №7,Krivyi Rih,Zambia,320,Hryvni
88,Tour Operator №8,Krivyi Rih,Zambia,280,Hryvni
99,Tour Operator №9,Krivyi Rih,Egypt,240,Hryvni
110,Tour Operator №10,Krivyi Rih,Egypt,200,Hryvni
121,Tour Operator №11,Krivyi Rih,Egypt,160,Hryvni
132,Tour Operator №12,Krivyi Rih,Crimea,120,Hryvni
143,Tour Operator №13,Krivyi Rih,Turkey,80,Hryvni
154,Tour Operator №14,Krivyi Rih,Zambia,40,Hryvni